<svg width="10" height="12" viewBox="0 0 10 12" fill="none" xmlns="http://www.w3.org/2000/svg">
<path d="M0.314148 0.232788L2.28739 0.232788L2.28739 2.1552L0.314148 2.1552L0.314148 0.232788ZM0.314148 9.84481L2.28739 9.84481L2.28739 11.7672L0.314148 11.7672L0.314148 9.84481ZM2.77943 0.232788L4.7527 0.232788L4.7527 2.1552L2.78459 2.1552L2.77943 0.232788ZM2.77943 2.63707L4.7527 2.63707L4.7527 4.55696L2.78459 4.55696L2.77943 2.63707ZM2.77943 7.44056L4.7527 7.44056L4.7527 9.36294L2.78459 9.36294L2.77943 7.44056ZM2.77943 9.84481L4.7527 9.84481L4.7527 11.7672L2.78459 11.7672L2.77943 9.84481ZM5.22153 2.63707L7.19481 2.63707L7.19481 4.55696L5.22153 4.55696L5.22153 2.63707ZM5.22153 5.0388L7.19481 5.0388L7.19481 6.96121L5.22153 6.96121L5.22153 5.0388ZM5.22153 7.44056L7.19481 7.44056L7.19481 9.36294L5.22153 9.36294L5.22153 7.44056ZM7.7126 5.0388L9.68587 5.0388L9.68587 6.96121L7.7126 6.96121L7.7126 5.0388Z" fill="white"/>
</svg>
