<svg width="36" height="36" viewBox="0 0 36 36" fill="none" xmlns="http://www.w3.org/2000/svg">
<g clip-path="url(#clip0_216_1398)">
<path d="M8.91604 25.4889C8.36251 25.4889 7.91224 25.0386 7.91224 24.4851C7.91224 23.9316 8.3626 23.4813 8.91604 23.4813H9.17005C9.58347 23.4813 9.91984 23.8177 9.91984 24.2311C9.91984 24.5979 10.2172 24.8953 10.5841 24.8953C10.9509 24.8953 11.2483 24.5979 11.2483 24.2311C11.2483 23.0852 10.316 22.1528 9.17005 22.1528H8.91604C7.62998 22.1528 6.58376 23.1991 6.58376 24.4851C6.58376 25.7712 7.62998 26.8174 8.91604 26.8174C9.46957 26.8174 9.91984 27.2677 9.91984 27.8212C9.91984 28.3747 9.46957 28.8249 8.91604 28.8249H8.66204C8.24861 28.8249 7.91224 28.4886 7.91224 28.0752C7.91224 27.7084 7.61484 27.411 7.248 27.411C6.88117 27.411 6.58376 27.7084 6.58376 28.0752C6.58376 29.2211 7.51609 30.1534 8.66204 30.1534H8.91604C10.2021 30.1534 11.2483 29.1072 11.2483 27.8212C11.2483 26.5352 10.2021 25.4889 8.91604 25.4889Z" fill="#FBA355"/>
<path d="M23.0464 27.897C22.6796 27.897 22.3822 28.1944 22.3822 28.5613V28.8251H20.3747V22.8172C20.3747 22.4504 20.0773 22.153 19.7105 22.153C19.3436 22.153 19.0462 22.4504 19.0462 22.8172V29.4893C19.0462 29.8561 19.3436 30.1535 19.7105 30.1535H23.0464C23.4133 30.1535 23.7107 29.8561 23.7107 29.4893V28.5612C23.7107 28.1943 23.4133 27.897 23.0464 27.897Z" fill="#FBA355"/>
<path d="M28.752 24.5932C29.1188 24.5932 29.4162 24.2958 29.4162 23.9289V22.8171C29.4162 22.4502 29.1188 22.1528 28.752 22.1528H25.4159C25.0491 22.1528 24.7517 22.4502 24.7517 22.8171V29.4891C24.7517 29.856 25.0491 30.1534 25.4159 30.1534H28.752C29.1188 30.1534 29.4162 29.856 29.4162 29.4891V28.5611C29.4162 28.1942 29.1188 27.8968 28.752 27.8968C28.3852 27.8968 28.0878 28.1942 28.0878 28.5611V28.8249H26.0802V26.8174H27.2978C27.6647 26.8174 27.9621 26.52 27.9621 26.1531C27.9621 25.7863 27.6647 25.4889 27.2978 25.4889H26.0802V23.4813H28.0878V23.9289C28.0878 24.2958 28.3852 24.5932 28.752 24.5932Z" fill="#FBA355"/>
<path d="M14.9701 22.1963C13.696 22.1963 12.6594 23.2329 12.6594 24.507V29.4463C12.6594 29.8132 12.9568 30.1106 13.3237 30.1106C13.6905 30.1106 13.9879 29.8132 13.9879 29.4463V27.887H15.9523V29.4463C15.9523 29.8132 16.2497 30.1106 16.6165 30.1106C16.9834 30.1106 17.2808 29.8132 17.2808 29.4463V24.507C17.2808 23.2329 16.2442 22.1963 14.9701 22.1963ZM15.9523 26.5584H13.9879V24.507C13.9879 23.9654 14.4285 23.5248 14.9701 23.5248C15.5117 23.5248 15.9523 23.9654 15.9523 24.507V26.5584Z" fill="#FBA355"/>
<path d="M31.9553 17.1864H28.9561L20.314 5.84341C20.7555 5.31795 21.0221 4.64078 21.0221 3.90233C21.0221 2.23588 19.6664 0.880127 17.9999 0.880127C16.3335 0.880127 14.9777 2.23588 14.9777 3.90233C14.9777 4.64096 15.2445 5.31822 15.6861 5.84377L7.04368 17.1864H4.04469C1.81444 17.1864 0 19.0008 0 21.2311V31.0754C0 33.3056 1.81444 35.1201 4.04469 35.1201H31.9553C34.1856 35.1201 36 33.3056 36 31.0754V21.2311C36 19.0008 34.1856 17.1864 31.9553 17.1864ZM18 2.20869C18.9339 2.20869 19.6937 2.9685 19.6937 3.90242C19.6937 4.83634 18.9339 5.59614 18 5.59614C17.0661 5.59614 16.3063 4.83634 16.3063 3.90242C16.3063 2.9685 17.0661 2.20869 18 2.20869ZM16.7425 6.64944C17.1258 6.8256 17.5514 6.92453 18 6.92453C18.4488 6.92453 18.8746 6.82542 19.2579 6.64927L27.286 17.1865H8.71385L16.7425 6.64944ZM34.6715 31.0753C34.6715 32.573 33.453 33.7915 31.9553 33.7915H4.04469C2.54696 33.7915 1.32848 32.573 1.32848 31.0753V21.2311C1.32848 19.7334 2.54696 18.5149 4.04469 18.5149H31.9553C33.453 18.5149 34.6715 19.7334 34.6715 21.2311V31.0753Z" fill="#FBA355"/>
</g>
<defs>
<clipPath id="clip0_216_1398">
<rect width="36" height="36" fill="white"/>
</clipPath>
</defs>
</svg>
